uniprot_acc	start	end	term_id
P35637	1	163	GO:0043232
P35637	1	163	IDPO:00076
P35637	1	163	GO:0140693
P35637	1	214	GO:0043232
P35637	1	214	GO:1990000
P35637	1	422	GO:0043232
P35637	1	507	IDPO:00076
P35637	1	526	GO:0140693
P35637	1	526	GO:0043232
P35637	2	36	IDPO:00076
P35637	37	41	GO:0005515
P35637	39	95	GO:1990000
P35637	98	214	IDPO:00076
P35637	149	154	GO:0005515
P35637	285	370	GO:0003723
P35637	285	370	IDPO:00050
P35637	421	455	IDPO:00050
P35637	508	526	GO:0005515
