80_clustalO_seqident60
60_clustalO_seqident60	0.9491454696309
60_clustalO_seqident80	1.17415235478594e-84
80_clustalO_seqident80	9.4144999204447e-86
60_mafftD_seqident60	0.31533700079364
80_mafftD_seqident60	0.186084719110444
60_mafftD_seqident80	1.01780043038709e-84
80_mafftD_seqident80	9.4144999204447e-86
